module codeberg.org/anabasis/yt

go 1.20

require (
	github.com/charmbracelet/bubbles v0.16.1
	github.com/charmbracelet/bubbletea v0.24.1
	github.com/koki-develop/go-fzf v0.14.1
	github.com/robertkrimen/otto v0.2.1
	github.com/tidwall/gjson v1.14.4
	github.com/u2takey/ffmpeg-go v0.4.1
	github.com/urfave/cli/v2 v2.25.5
)

require (
	github.com/atotto/clipboard v0.1.4 // indirect
	github.com/aws/aws-sdk-go v1.44.276 // indirect
	github.com/aymanbagabas/go-osc52/v2 v2.0.1 // indirect
	github.com/charmbracelet/harmonica v0.2.0 // indirect
	github.com/charmbracelet/lipgloss v0.7.1 // indirect
	github.com/containerd/console v1.0.4-0.20230313162750-1ae8d489ac81 // indirect
	github.com/cpuguy83/go-md2man/v2 v2.0.2 // indirect
	github.com/jmespath/go-jmespath v0.4.0 // indirect
	github.com/lucasb-eyer/go-colorful v1.2.0 // indirect
	github.com/mattn/go-isatty v0.0.19 // indirect
	github.com/mattn/go-localereader v0.0.1 // indirect
	github.com/mattn/go-runewidth v0.0.14 // indirect
	github.com/muesli/ansi v0.0.0-20230316100256-276c6243b2f6 // indirect
	github.com/muesli/cancelreader v0.2.2 // indirect
	github.com/muesli/reflow v0.3.0 // indirect
	github.com/muesli/termenv v0.15.1 // indirect
	github.com/rivo/uniseg v0.4.4 // indirect
	github.com/russross/blackfriday/v2 v2.1.0 // indirect
	github.com/tidwall/match v1.1.1 // indirect
	github.com/tidwall/pretty v1.2.1 // indirect
	github.com/u2takey/go-utils v0.3.1 // indirect
	github.com/xrash/smetrics v0.0.0-20201216005158-039620a65673 // indirect
	golang.org/x/sync v0.2.0 // indirect
	golang.org/x/sys v0.8.0 // indirect
	golang.org/x/term v0.8.0 // indirect
	golang.org/x/text v0.9.0 // indirect
	gopkg.in/sourcemap.v1 v1.0.5 // indirect
)
